{
  "swagger" : "2.0",
  "info" : {
    "version" : "1.0",
    "title" : "IngestAPI"
  },
  "host" : "gjo4wxodv8.execute-api.ap-southeast-2.amazonaws.com",
  "basePath" : "/AuditTrail",
  "schemes" : [ "https" ],
  "paths" : {
    "/AuditTrail/{stream-name}" : {
      "put" : {
        "consumes" : [ "application/json" ],
        "produces" : [ "application/json" ],
        "parameters" : [ {
          "name" : "stream-name",
          "in" : "path",
          "required" : true,
          "type" : "string"
        }, {
          "in" : "body",
          "name" : "Stream Data",
          "description" : "Device data to Ingest",
          "required" : false,
          "schema" : {
            "$ref" : "#/definitions/StreamData"
          }
        } ],
        "responses" : {
          "201" : {
            "description" : "Created."
          },
          "400" : {
            "description" : "Bad Request."
          },
          "406" : {
            "description" : "Invalid Request Body."
          },
          "500" : {
            "description" : "Internal Server Error,"
          }
        },
        "x-amazon-apigateway-integration" : {
          "credentials" : "arn:aws:iam::750715386712:role/Wayne_API_Intergration",
          "responses" : {
            "default" : {
              "statusCode" : "201",
              "body" : "Created."
            },
            "400": { 
            "statusCode": "400",
            "body": "Denied due to request throttling."
          },
            "406": { 
            "statusCode": "406",
            "body": "Invalid Request Body."
          }
          },
          "requestTemplates" : {
            "application/json" : "{\n    \"StreamName\": \"$input.params('stream-name')\",\n    \"Data\": \"$util.base64Encode($input.json('$.Data'))\",\n    \"PartitionKey\": \"$input.path('$.PartitionKey')\"\n}"
          },
          "uri" : "arn:aws:apigateway:ap-southeast-2:kinesis:action/PutRecord",
          "httpMethod" : "POST",
          "requestParameters" : {
            "integration.request.header.Content-Type" : "'application/x-amz-json-1.1'"
          },
          "type" : "aws"
        }
      }
    }
  },
  "definitions" : {
    "StreamData" : {
      "type" : "object",
      "required" : [ "PartitionKey", "Data" ],
      "properties" : {
        "PartitionKey" : {
          "type" : "integer"
        },
        "Data" : {
          "type" : "array",
          "items" : {
            "type" : "object",
            "properties" : {
              "Client" : {
                "type" : "string"
              },
              "ID" : {
                "type" : "string"
              },
              "SourceType" : {
                "type" : "string"
              },
              "UserId" : {
                "type" : "string"
              },
              "SecurityContext" : {
                "type" : "string"
              },
              "CreatedAt" : {
                "type" : "string"
              },
              "SourceId" : {
                "type" : "string"
              },
              "ChangeDescription" : {
                "type" : "string"
              },
              "ChangeData" : {
                "type" : "string"
              },
              "IPAddress" : {
                "type" : "string"
              },
              "Action" : {
                "type" : "string"
              },
              "ActionType" : {
                "type" : "string"
              },
              "Environment" : {
                "type" : "string"
              },
              "Version" : {
                "type" : "string"
              }
            }
          }
        }
      }
    }
  },
  "x-aws-api-id" : "4euh0n5m8c"
}
